%!PS-Adobe-3.0
%%DocumentNeededResources: font Helvetica
%%+ font Helvetica-Bold
%%+ font Helvetica-Oblique
%%+ font Helvetica-BoldOblique
%%+ font Symbol
%%DocumentMedia: letter 612 792 0 () ()
%%Title: R Graphics Output
%%Creator: R Software
%%Pages: (atend)
%%Orientation: Landscape
%%BoundingBox: 18 18 594 774
%%EndComments
%%BeginProlog
/bp  { gs sRGB 612.00 0 translate 90 rotate gs } def
% begin .ps.prolog
/gs  { gsave } bind def
/gr  { grestore } bind def
/ep  { showpage gr gr } bind def
/m   { moveto } bind def
/l  { rlineto } bind def
/np  { newpath } bind def
/cp  { closepath } bind def
/f   { fill } bind def
/o   { stroke } bind def
/c   { newpath 0 360 arc } bind def
/r   { 4 2 roll moveto 1 copy 3 -1 roll exch 0 exch rlineto 0 rlineto -1 mul 0 exch rlineto closepath } bind def
/p1  { stroke } bind def
/p2  { gsave bg fill grestore newpath } bind def
/p3  { gsave bg fill grestore stroke } bind def
/p6  { gsave bg eofill grestore newpath } bind def
/p7  { gsave bg eofill grestore stroke } bind def
/t   { 5 -2 roll moveto gsave rotate
       1 index stringwidth pop
       mul neg 0 rmoveto show grestore } bind def
/ta  { 4 -2 roll moveto gsave rotate show } bind def
/tb  { 2 -1 roll 0 rmoveto show } bind def
/cl  { grestore gsave newpath 3 index 3 index moveto 1 index
       4 -1 roll lineto  exch 1 index lineto lineto
       closepath clip newpath } bind def
/rgb { setrgbcolor } bind def
/s   { scalefont setfont } bind def
% end   .ps.prolog
/sRGB { [ /CIEBasedABC
          << /DecodeLMN
               [ { dup 0.03928 le
                        {12.92321 div}
                        {0.055 add 1.055 div 2.4 exp }
                     ifelse
                 } bind dup dup
               ]
             /MatrixLMN [0.412457 0.212673 0.019334
                         0.357576 0.715152 0.119192
                         0.180437 0.072175 0.950301]
             /WhitePoint [0.9505 1.0 1.0890]
           >>
         ] setcolorspace } bind def
/srgb { setcolor } bind def
% begin encoding
/WinAnsiEncoding [
 /.notdef /.notdef /.notdef /.notdef /.notdef /.notdef /.notdef /.notdef
 /.notdef /.notdef /.notdef /.notdef /.notdef /.notdef /.notdef /.notdef
 /.notdef /.notdef /.notdef /.notdef /.notdef /.notdef /.notdef /.notdef
 /.notdef /.notdef /.notdef /.notdef /.notdef /.notdef /.notdef /.notdef
 /space /exclam /quotedbl /numbersign /dollar /percent /ampersand /quoteright
 /parenleft /parenright /asterisk /plus /comma /minus /period /slash
 /zero /one /two /three /four /five /six /seven
 /eight /nine /colon /semicolon /less /equal /greater /question
 /at /A /B /C /D /E /F /G
 /H /I /J /K /L /M /N /O
 /P /Q /R /S /T /U /V /W
 /X /Y /Z /bracketleft /backslash /bracketright /asciicircum /underscore
 /grave /a /b /c /d /e /f /g
 /h /i /j /k /l /m /n /o
 /p /q /r /s /t /u /v /w
 /x /y /z /braceleft /bar /braceright /asciitilde /.notdef
 /Euro /.notdef /quotesinglbase /florin /quotedblbase /ellipsis /dagger /daggerdbl
 /circumflex /perthousand /Scaron /guilsinglleft /OE /.notdef /Zcaron /.notdef
 /.notdef /quoteleft /quoteright /quotedblleft /quotedblright /bullet /endash /emdash
 /tilde /trademark /scaron /guilsinglright /oe /.notdef /zcaron /Ydieresis
 /space /exclamdown /cent /sterling /currency /yen /brokenbar /section
 /dieresis /copyright /ordfeminine /guillemotleft /logicalnot /hyphen /registered /macron
 /degree /plusminus /twosuperior /threesuperior /acute /mu /paragraph /periodcentered
 /cedilla /onesuperior /ordmasculine /guillemotright /onequarter /onehalf /threequarters /questiondown
 /Agrave /Aacute /Acircumflex /Atilde /Adieresis /Aring /AE /Ccedilla
 /Egrave /Eacute /Ecircumflex /Edieresis /Igrave /Iacute /Icircumflex /Idieresis
 /Eth /Ntilde /Ograve /Oacute /Ocircumflex /Otilde /Odieresis /multiply
 /Oslash /Ugrave /Uacute /Ucircumflex /Udieresis /Yacute /Thorn /germandbls
 /agrave /aacute /acircumflex /atilde /adieresis /aring /ae /ccedilla
 /egrave /eacute /ecircumflex /edieresis /igrave /iacute /icircumflex /idieresis
 /eth /ntilde /ograve /oacute /ocircumflex /otilde /odieresis /divide
 /oslash /ugrave /uacute /ucircumflex /udieresis /yacute /thorn /ydieresis
]
 def
% end encoding
%%IncludeResource: font Helvetica
/Helvetica findfont
dup length dict begin
  {1 index /FID ne {def} {pop pop} ifelse} forall
  /Encoding WinAnsiEncoding def
  currentdict
  end
/Font1 exch definefont pop
%%IncludeResource: font Helvetica-Bold
/Helvetica-Bold findfont
dup length dict begin
  {1 index /FID ne {def} {pop pop} ifelse} forall
  /Encoding WinAnsiEncoding def
  currentdict
  end
/Font2 exch definefont pop
%%IncludeResource: font Helvetica-Oblique
/Helvetica-Oblique findfont
dup length dict begin
  {1 index /FID ne {def} {pop pop} ifelse} forall
  /Encoding WinAnsiEncoding def
  currentdict
  end
/Font3 exch definefont pop
%%IncludeResource: font Helvetica-BoldOblique
/Helvetica-BoldOblique findfont
dup length dict begin
  {1 index /FID ne {def} {pop pop} ifelse} forall
  /Encoding WinAnsiEncoding def
  currentdict
  end
/Font4 exch definefont pop
%%IncludeResource: font Symbol
/Symbol findfont
dup length dict begin
  {1 index /FID ne {def} {pop pop} ifelse} forall
  currentdict
  end
/Font5 exch definefont pop
%%EndProlog
%%Page: 1 1
bp
77.04 91.44 743.76 534.96 cl
/bg { 0.8275 0.8275 0.8275 srgb } def
np
 117.17 250.48 m
123.46 0 l
0 41.43 l
-123.46 0 l
cp p2
0 0 0 srgb
2.25 setlinewidth
[] 0 setdash
0 setlinecap
1 setlinejoin
10.00 setmiterlimit
np
117.17 271.19 m
123.46 0 l
o
0.75 setlinewidth
[ 2.25 3.75] 0 setdash
1 setlinecap
np
178.90 250.48 m
0 0 l
o
np
178.90 291.91 m
0 0 l
o
0.75 setlinewidth
[] 0 setdash
np
148.03 250.48 m
61.74 0 l
o
np
148.03 291.91 m
61.74 0 l
o
np
 117.17 250.48 m
123.46 0 l
0 41.43 l
-123.46 0 l
cp p1
np
 271.50 164.32 m
123.47 0 l
0 205.34 l
-123.47 0 l
cp p2
2.25 setlinewidth
[] 0 setdash
0 setlinecap
np
271.50 220.78 m
123.47 0 l
o
0.75 setlinewidth
[ 2.25 3.75] 0 setdash
1 setlinecap
np
333.23 107.87 m
0 56.45 l
o
np
333.23 518.53 m
0 -148.87 l
o
0.75 setlinewidth
[] 0 setdash
np
302.37 107.87 m
61.73 0 l
o
np
302.37 518.53 m
61.73 0 l
o
np
 271.50 164.32 m
123.47 0 l
0 205.34 l
-123.47 0 l
cp p1
np
 425.83 252.49 m
123.47 0 l
0 146.01 l
-123.47 0 l
cp p2
2.25 setlinewidth
[] 0 setdash
0 setlinecap
np
425.83 300.01 m
123.47 0 l
o
0.75 setlinewidth
[ 2.25 3.75] 0 setdash
1 setlinecap
np
487.57 204.96 m
0 47.53 l
o
np
487.57 496.99 m
0 -98.49 l
o
0.75 setlinewidth
[] 0 setdash
np
456.70 204.96 m
61.73 0 l
o
np
456.70 496.99 m
61.73 0 l
o
np
 425.83 252.49 m
123.47 0 l
0 146.01 l
-123.47 0 l
cp p1
np
 580.17 187.54 m
123.46 0 l
0 158.17 l
-123.46 0 l
cp p2
2.25 setlinewidth
[] 0 setdash
0 setlinecap
np
580.17 266.63 m
123.46 0 l
o
0.75 setlinewidth
[ 2.25 3.75] 0 setdash
1 setlinecap
np
641.90 187.54 m
0 0 l
o
np
641.90 345.71 m
0 0 l
o
0.75 setlinewidth
[] 0 setdash
np
611.03 187.54 m
61.74 0 l
o
np
611.03 345.71 m
61.74 0 l
o
np
 580.17 187.54 m
123.46 0 l
0 158.17 l
-123.46 0 l
cp p1
18.00 18.00 774.00 594.00 cl
0 0 0 srgb
0.75 setlinewidth
[] 0 setdash
1 setlinecap
1 setlinejoin
10.00 setmiterlimit
np
178.90 91.44 m
463.00 0 l
o
np
178.90 91.44 m
0 -7.20 l
o
np
333.23 91.44 m
0 -7.20 l
o
np
487.57 91.44 m
0 -7.20 l
o
np
641.90 91.44 m
0 -7.20 l
o
/Font1 findfont 12 s
178.90 65.52 (A.core) .5 0 t
333.23 65.52 (B.core) .5 0 t
469.22 65.52 (A.flak) 0 ta
-0.240 (e) tb gr
623.56 65.52 (B.flak) 0 ta
-0.240 (e) tb gr
np
77.04 144.39 m
0 344.51 l
o
np
77.04 144.39 m
-7.20 0 l
o
np
77.04 213.29 m
-7.20 0 l
o
np
77.04 282.19 m
-7.20 0 l
o
np
77.04 351.10 m
-7.20 0 l
o
np
77.04 420.00 m
-7.20 0 l
o
np
77.04 488.90 m
-7.20 0 l
o
59.76 144.39 (4.0) .5 90 t
59.76 213.29 (4.5) .5 90 t
59.76 282.19 (5.0) .5 90 t
59.76 351.10 (5.5) .5 90 t
59.76 420.00 (6.0) .5 90 t
59.76 488.90 (6.5) .5 90 t
18.00 18.00 774.00 594.00 cl
/Font1 findfont 12 s
0 0 0 srgb
377.05 36.72 (La) 0 ta
-0.360 (y) tb
-0.240 (er : T) tb
-1.440 (ype) tb gr
30.96 313.20 (Length) .5 90 t
18.00 18.00 774.00 594.00 cl
0 0 0 srgb
0.75 setlinewidth
[] 0 setdash
1 setlinecap
1 setlinejoin
10.00 setmiterlimit
np
 77.04 91.44 m
666.72 0 l
0 443.52 l
-666.72 0 l
cp p1
ep
%%Trailer
%%Pages: 1
%%EOF
