%!PS-Adobe-3.0 EPSF-3.0
%%DocumentNeededResources: font Helvetica
%%+ font Helvetica-Bold
%%+ font Helvetica-Oblique
%%+ font Helvetica-BoldOblique
%%+ font Symbol
%%Title: R Graphics Output
%%Creator: R Software
%%Pages: (atend)
%%BoundingBox: 0 0 504 360
%%EndComments
%%BeginProlog
/bp  { gs sRGB gs } def
% begin .ps.prolog
/gs  { gsave } bind def
/gr  { grestore } bind def
/ep  { showpage gr gr } bind def
/m   { moveto } bind def
/l  { rlineto } bind def
/np  { newpath } bind def
/cp  { closepath } bind def
/f   { fill } bind def
/o   { stroke } bind def
/c   { newpath 0 360 arc } bind def
/r   { 4 2 roll moveto 1 copy 3 -1 roll exch 0 exch rlineto 0 rlineto -1 mul 0 exch rlineto closepath } bind def
/p1  { stroke } bind def
/p2  { gsave bg fill grestore newpath } bind def
/p3  { gsave bg fill grestore stroke } bind def
/p6  { gsave bg eofill grestore newpath } bind def
/p7  { gsave bg eofill grestore stroke } bind def
/t   { 5 -2 roll moveto gsave rotate
       1 index stringwidth pop
       mul neg 0 rmoveto show grestore } bind def
/ta  { 4 -2 roll moveto gsave rotate show } bind def
/tb  { 2 -1 roll 0 rmoveto show } bind def
/cl  { grestore gsave newpath 3 index 3 index moveto 1 index
       4 -1 roll lineto  exch 1 index lineto lineto
       closepath clip newpath } bind def
/rgb { setrgbcolor } bind def
/s   { scalefont setfont } bind def
% end   .ps.prolog
/sRGB { [ /CIEBasedABC
          << /DecodeLMN
               [ { dup 0.03928 le
                        {12.92321 div}
                        {0.055 add 1.055 div 2.4 exp }
                     ifelse
                 } bind dup dup
               ]
             /MatrixLMN [0.412457 0.212673 0.019334
                         0.357576 0.715152 0.119192
                         0.180437 0.072175 0.950301]
             /WhitePoint [0.9505 1.0 1.0890]
           >>
         ] setcolorspace } bind def
/srgb { setcolor } bind def
% begin encoding
/WinAnsiEncoding [
 /.notdef /.notdef /.notdef /.notdef /.notdef /.notdef /.notdef /.notdef
 /.notdef /.notdef /.notdef /.notdef /.notdef /.notdef /.notdef /.notdef
 /.notdef /.notdef /.notdef /.notdef /.notdef /.notdef /.notdef /.notdef
 /.notdef /.notdef /.notdef /.notdef /.notdef /.notdef /.notdef /.notdef
 /space /exclam /quotedbl /numbersign /dollar /percent /ampersand /quoteright
 /parenleft /parenright /asterisk /plus /comma /minus /period /slash
 /zero /one /two /three /four /five /six /seven
 /eight /nine /colon /semicolon /less /equal /greater /question
 /at /A /B /C /D /E /F /G
 /H /I /J /K /L /M /N /O
 /P /Q /R /S /T /U /V /W
 /X /Y /Z /bracketleft /backslash /bracketright /asciicircum /underscore
 /grave /a /b /c /d /e /f /g
 /h /i /j /k /l /m /n /o
 /p /q /r /s /t /u /v /w
 /x /y /z /braceleft /bar /braceright /asciitilde /.notdef
 /Euro /.notdef /quotesinglbase /florin /quotedblbase /ellipsis /dagger /daggerdbl
 /circumflex /perthousand /Scaron /guilsinglleft /OE /.notdef /Zcaron /.notdef
 /.notdef /quoteleft /quoteright /quotedblleft /quotedblright /bullet /endash /emdash
 /tilde /trademark /scaron /guilsinglright /oe /.notdef /zcaron /Ydieresis
 /space /exclamdown /cent /sterling /currency /yen /brokenbar /section
 /dieresis /copyright /ordfeminine /guillemotleft /logicalnot /hyphen /registered /macron
 /degree /plusminus /twosuperior /threesuperior /acute /mu /paragraph /periodcentered
 /cedilla /onesuperior /ordmasculine /guillemotright /onequarter /onehalf /threequarters /questiondown
 /Agrave /Aacute /Acircumflex /Atilde /Adieresis /Aring /AE /Ccedilla
 /Egrave /Eacute /Ecircumflex /Edieresis /Igrave /Iacute /Icircumflex /Idieresis
 /Eth /Ntilde /Ograve /Oacute /Ocircumflex /Otilde /Odieresis /multiply
 /Oslash /Ugrave /Uacute /Ucircumflex /Udieresis /Yacute /Thorn /germandbls
 /agrave /aacute /acircumflex /atilde /adieresis /aring /ae /ccedilla
 /egrave /eacute /ecircumflex /edieresis /igrave /iacute /icircumflex /idieresis
 /eth /ntilde /ograve /oacute /ocircumflex /otilde /odieresis /divide
 /oslash /ugrave /uacute /ucircumflex /udieresis /yacute /thorn /ydieresis
]
 def
% end encoding
%%IncludeResource: font Helvetica
/Helvetica findfont
dup length dict begin
  {1 index /FID ne {def} {pop pop} ifelse} forall
  /Encoding WinAnsiEncoding def
  currentdict
  end
/Font1 exch definefont pop
%%IncludeResource: font Helvetica-Bold
/Helvetica-Bold findfont
dup length dict begin
  {1 index /FID ne {def} {pop pop} ifelse} forall
  /Encoding WinAnsiEncoding def
  currentdict
  end
/Font2 exch definefont pop
%%IncludeResource: font Helvetica-Oblique
/Helvetica-Oblique findfont
dup length dict begin
  {1 index /FID ne {def} {pop pop} ifelse} forall
  /Encoding WinAnsiEncoding def
  currentdict
  end
/Font3 exch definefont pop
%%IncludeResource: font Helvetica-BoldOblique
/Helvetica-BoldOblique findfont
dup length dict begin
  {1 index /FID ne {def} {pop pop} ifelse} forall
  /Encoding WinAnsiEncoding def
  currentdict
  end
/Font4 exch definefont pop
%%IncludeResource: font Symbol
/Symbol findfont
dup length dict begin
  {1 index /FID ne {def} {pop pop} ifelse} forall
  currentdict
  end
/Font5 exch definefont pop
%%EndProlog
%%Page: 1 1
bp
/bg { 1 1 1 srgb } def
0.00 0.00 504.00 360.00 r p2
0.00 0.00 504.00 360.00 cl
0.00 0.00 504.00 360.00 cl
0.00 0.00 504.00 360.00 cl
0.00 0.00 504.00 360.00 cl
0.00 0.00 504.00 360.00 cl
0.00 0.00 504.00 360.00 cl
0.00 0.00 504.00 360.00 cl
0.00 0.00 504.00 360.00 cl
0.00 0.00 504.00 360.00 cl
0.00 0.00 504.00 360.00 cl
0.00 0.00 504.00 360.00 cl
0.00 0.00 504.00 360.00 cl
0.00 0.00 504.00 360.00 cl
0.00 0.00 504.00 360.00 cl
0.00 0.00 504.00 360.00 cl
0.00 0.00 504.00 360.00 cl
/bg { 1 1 1 srgb } def
1 1 1 srgb
1.07 setlinewidth
[] 0 setdash
1 setlinecap
1 setlinejoin
10.00 setmiterlimit
0.00 0.00 504.00 360.00 r p3
0.00 0.00 504.00 360.00 cl
28.47 31.91 435.02 354.52 cl
/bg { 0.9216 0.9216 0.9216 srgb } def
28.47 31.91 406.54 322.61 r p2
1 1 1 srgb
0.53 setlinewidth
[] 0 setdash
0 setlinecap
1 setlinejoin
10.00 setmiterlimit
np
28.47 121.87 m
406.55 0 l
o
np
28.47 220.28 m
406.55 0 l
o
np
28.47 318.69 m
406.55 0 l
o
1.07 setlinewidth
[] 0 setdash
np
28.47 72.66 m
406.55 0 l
o
np
28.47 171.07 m
406.55 0 l
o
np
28.47 269.49 m
406.55 0 l
o
np
139.35 31.91 m
0 322.61 l
o
np
324.14 31.91 m
0 322.61 l
o
0.2000 0.2000 0.2000 srgb
np
104.70 170.61 m
0 7.40 l
o
np
104.70 155.82 m
0 -7.40 l
o
/bg { 0.9725 0.4627 0.4275 srgb } def
0 setlinejoin
np
 73.52 170.61 m
0 -14.79 l
62.36 0 l
0 14.79 l
-62.36 0 l
cp p3
2.13 setlinewidth
[] 0 setdash
np
73.52 163.22 m
62.36 0 l
o
1.07 setlinewidth
[] 0 setdash
1 setlinejoin
np
174.00 254.13 m
0 70.34 l
o
np
174.00 149.86 m
0 -33.95 l
o
/bg { 0 0.7490 0.7686 srgb } def
0 setlinejoin
np
 142.81 254.13 m
0 -104.27 l
62.37 0 l
0 104.27 l
-62.37 0 l
cp p3
2.13 setlinewidth
[] 0 setdash
np
142.81 183.80 m
62.37 0 l
o
1.07 setlinewidth
[] 0 setdash
1 setlinejoin
np
289.49 233.54 m
0 106.32 l
o
np
289.49 86.89 m
0 -40.32 l
o
/bg { 0.9725 0.4627 0.4275 srgb } def
0 setlinejoin
np
 258.31 233.54 m
0 -146.65 l
62.37 0 l
0 146.65 l
-62.37 0 l
cp p3
2.13 setlinewidth
[] 0 setdash
np
258.31 127.21 m
62.37 0 l
o
1.07 setlinewidth
[] 0 setdash
1 setlinejoin
np
358.79 188.19 m
0 28.24 l
o
np
358.79 131.72 m
0 -28.24 l
o
/bg { 0 0.7490 0.7686 srgb } def
0 setlinejoin
np
 327.60 188.19 m
0 -56.47 l
62.37 0 l
0 56.47 l
-62.37 0 l
cp p3
2.13 setlinewidth
[] 0 setdash
np
327.60 159.96 m
62.37 0 l
o
0.00 0.00 504.00 360.00 cl
0.00 0.00 504.00 360.00 cl
0.00 0.00 504.00 360.00 cl
0.00 0.00 504.00 360.00 cl
0.00 0.00 504.00 360.00 cl
0.00 0.00 504.00 360.00 cl
0.00 0.00 504.00 360.00 cl
0.00 0.00 504.00 360.00 cl
0.00 0.00 504.00 360.00 cl
0.00 0.00 504.00 360.00 cl
0.00 0.00 504.00 360.00 cl
0.00 0.00 504.00 360.00 cl
0.00 0.00 504.00 360.00 cl
0.00 0.00 504.00 360.00 cl
0.00 0.00 504.00 360.00 cl
0.00 0.00 504.00 360.00 cl
/Font1 findfont 9 s
0.3020 0.3020 0.3020 srgb
23.54 69.43 (4) 1 0 t
23.54 167.84 (5) 1 0 t
23.54 266.25 (6) 1 0 t
0.00 0.00 504.00 360.00 cl
0.00 0.00 504.00 360.00 cl
0.00 0.00 504.00 360.00 cl
0.2000 0.2000 0.2000 srgb
1.07 setlinewidth
[] 0 setdash
0 setlinecap
1 setlinejoin
10.00 setmiterlimit
np
25.73 72.66 m
2.74 0 l
o
np
25.73 171.07 m
2.74 0 l
o
np
25.73 269.49 m
2.74 0 l
o
0.00 0.00 504.00 360.00 cl
0.00 0.00 504.00 360.00 cl
0.00 0.00 504.00 360.00 cl
0.00 0.00 504.00 360.00 cl
0.00 0.00 504.00 360.00 cl
0.00 0.00 504.00 360.00 cl
0.00 0.00 504.00 360.00 cl
0.00 0.00 504.00 360.00 cl
0.00 0.00 504.00 360.00 cl
0.00 0.00 504.00 360.00 cl
0.00 0.00 504.00 360.00 cl
0.2000 0.2000 0.2000 srgb
1.07 setlinewidth
[] 0 setdash
0 setlinecap
1 setlinejoin
10.00 setmiterlimit
np
139.35 29.17 m
0 2.74 l
o
np
324.14 29.17 m
0 2.74 l
o
0.00 0.00 504.00 360.00 cl
0.00 0.00 504.00 360.00 cl
/Font1 findfont 9 s
0.3020 0.3020 0.3020 srgb
139.35 20.52 (A) .5 0 t
324.14 20.52 (B) .5 0 t
0.00 0.00 504.00 360.00 cl
0.00 0.00 504.00 360.00 cl
0.00 0.00 504.00 360.00 cl
0.00 0.00 504.00 360.00 cl
0.00 0.00 504.00 360.00 cl
0.00 0.00 504.00 360.00 cl
0.00 0.00 504.00 360.00 cl
0.00 0.00 504.00 360.00 cl
/Font1 findfont 11 s
0 0 0 srgb
217.99 7.90 (La) 0 ta
-0.330 (y) tb
-0.220 (er) tb gr
0.00 0.00 504.00 360.00 cl
0.00 0.00 504.00 360.00 cl
0.00 0.00 504.00 360.00 cl
/Font1 findfont 11 s
0 0 0 srgb
13.38 193.22 (Length) .5 90 t
0.00 0.00 504.00 360.00 cl
0.00 0.00 504.00 360.00 cl
0.00 0.00 504.00 360.00 cl
0.00 0.00 504.00 360.00 cl
0.00 0.00 504.00 360.00 cl
0.00 0.00 504.00 360.00 cl
0.00 0.00 504.00 360.00 cl
0.00 0.00 504.00 360.00 cl
0.00 0.00 504.00 360.00 cl
/bg { 1 1 1 srgb } def
445.97 162.56 52.55 61.32 r p2
0.00 0.00 504.00 360.00 cl
0.00 0.00 504.00 360.00 cl
0.00 0.00 504.00 360.00 cl
0.00 0.00 504.00 360.00 cl
/Font1 findfont 11 s
0 0 0 srgb
451.45 209.29 (T) 0 ta
-1.320 (ype) tb gr
0.00 0.00 504.00 360.00 cl
0.00 0.00 504.00 360.00 cl
0.00 0.00 504.00 360.00 cl
0.00 0.00 504.00 360.00 cl
/bg { 0.9490 0.9490 0.9490 srgb } def
451.45 185.32 17.28 17.28 r p2
0.00 0.00 504.00 360.00 cl
0.00 0.00 504.00 360.00 cl
0.2000 0.2000 0.2000 srgb
1.07 setlinewidth
[] 0 setdash
0 setlinecap
0 setlinejoin
10.00 setmiterlimit
np
460.09 187.04 m
0 2.60 l
o
np
460.09 198.28 m
0 2.59 l
o
/bg { 0.9725 0.4627 0.4275 srgb } def
453.61 189.64 12.96 8.64 r p3
np
453.61 193.96 m
12.96 0 l
o
0.00 0.00 504.00 360.00 cl
0.00 0.00 504.00 360.00 cl
/bg { 0.9490 0.9490 0.9490 srgb } def
451.45 168.04 17.28 17.28 r p2
0.00 0.00 504.00 360.00 cl
0.00 0.00 504.00 360.00 cl
0.2000 0.2000 0.2000 srgb
1.07 setlinewidth
[] 0 setdash
0 setlinecap
0 setlinejoin
10.00 setmiterlimit
np
460.09 169.76 m
0 2.60 l
o
np
460.09 181.00 m
0 2.59 l
o
/bg { 0 0.7490 0.7686 srgb } def
453.61 172.36 12.96 8.64 r p3
np
453.61 176.68 m
12.96 0 l
o
0.00 0.00 504.00 360.00 cl
0.00 0.00 504.00 360.00 cl
0.00 0.00 504.00 360.00 cl
0.00 0.00 504.00 360.00 cl
/Font1 findfont 9 s
0 0 0 srgb
474.21 190.73 (core) 0 0 t
0.00 0.00 504.00 360.00 cl
0.00 0.00 504.00 360.00 cl
0.00 0.00 504.00 360.00 cl
0.00 0.00 504.00 360.00 cl
0.00 0.00 504.00 360.00 cl
0.00 0.00 504.00 360.00 cl
/Font1 findfont 9 s
0 0 0 srgb
474.21 173.45 (flak) 0 ta
-0.180 (e) tb gr
0.00 0.00 504.00 360.00 cl
0.00 0.00 504.00 360.00 cl
0.00 0.00 504.00 360.00 cl
0.00 0.00 504.00 360.00 cl
0.00 0.00 504.00 360.00 cl
0.00 0.00 504.00 360.00 cl
0.00 0.00 504.00 360.00 cl
0.00 0.00 504.00 360.00 cl
0.00 0.00 504.00 360.00 cl
0.00 0.00 504.00 360.00 cl
0.00 0.00 504.00 360.00 cl
0.00 0.00 504.00 360.00 cl
0.00 0.00 504.00 360.00 cl
0.00 0.00 504.00 360.00 cl
0.00 0.00 504.00 360.00 cl
0.00 0.00 504.00 360.00 cl
ep
%%Trailer
%%Pages: 1
%%EOF
